<svg xmlns="http://www.w3.org/2000/svg" viewBox="0 0 44.12 32.67">
    <defs>
        <style>
            .form-arrow,.form-arrow-2{fill:none;stroke:#000;stroke-linecap:round;stroke-width:4px;}
            .form-arrow{stroke-linejoin:round;}
            .form-arrow-2{stroke-miterlimit:10;}
        </style>
    </defs>
    <g id="layer_2" data-name="layer 2">
        <g id="Layer_1" data-name="Layer 1">
            <path class="form-arrow" d="M2,15.9H24.11"/>
            <path class="form-arrow" d="M41.78,15.9h.33L24.45,30.67"/>
            <line class="form-arrow-2" x1="42.12" y1="15.9" x2="25.45" y2="2"/>
        </g>
    </g>
</svg>