<svg xmlns="http://www.w3.org/2000/svg" viewBox="0 0 106.6 102.6">
    <g id="start">
        <path style="fill: #ffcc33;" d="M53.4,0,67.7,36.9,106.6,39,77.9,63.6l8.2,39L53.3,82.1,20.5,102.6l8.2-39L0,39l36.8-2.1Z"/>
    </g>
</svg>